{
  "realm": "dga",
  "enabled": true,
  "users": [
    {
      "username": "tester1",
      "enabled": true,
      "credentials": [
        {
          "type": "password",
          "value": "test"
        }
      ],
      "realmRoles": [
        "user",
        "transport"
      ],
      "attributes": {
        "telephone": "1234567890",
        "occupation": "Developer",
        "work_address": "Marlo Group, the ninth tower"
      }
    },
    {
      "username": "user1",
      "enabled": true,
      "credentials": [
        {
          "type": "password",
          "value": "user1"
        }
      ],
      "realmRoles": [
        "user"
      ],
      "attributes": {
        "telephone": "1234567890",
        "occupation": "Developer",
        "work_address": "Marlo Group, the ninth tower"
      }
    },
    {
      "username": "admin1",
      "enabled": true,
      "credentials": [
        {
          "type": "password",
          "value": "admin1"
        }
      ],
      "realmRoles": [
        "admin"
      ],
      "attributes": {
        "telephone": "1234567890",
        "occupation": "Admin",
        "work_address": "Marlo Group, the ninth tower"
      }
    }
  ],
  "roles": {
    "realm": [
      {
        "name": "user",
        "description": "User privileges"
      },
      {
        "name": "admin",
        "description": "Administrator privileges"
      },
      {
        "name": "transport",
        "description": "Transport department role"
      },
      {
        "name": "society",
        "description": "Society department role"
      }
    ]
  },
  "defaultRoles": [
    "user"
  ],
  "clients": [
    {
      "clientId": "dga-app",
      "enabled": true,
      "clientAuthenticatorType": "client-secret",
      "secret": "password",
      "redirectUris": [
        "*"
      ],
      "webOrigins": [
        "*"
      ],
      "notBefore": 0,
      "bearerOnly": false,
      "consentRequired": false,
      "standardFlowEnabled": true,
      "implicitFlowEnabled": false,
      "directAccessGrantsEnabled": true,
      "serviceAccountsEnabled": true,
      "authorizationServicesEnabled": true,
      "publicClient": false,
      "frontchannelLogout": false,
      "protocol": "openid-connect",
      "defaultClientScopes": [
        "web-origins",
        "role_list",
        "profile",
        "roles",
        "email"
      ],
      "optionalClientScopes": [
        "address",
        "phone",
        "offline_access",
        "microprofile-jwt"
      ],
      "protocolMappers": [
        {
          "name": "Telephone",
          "protocol": "openid-connect",
          "protocolMapper": "oidc-usermodel-attribute-mapper",
          "consentRequired": false,
          "config": {
            "userinfo.token.claim": "true",
            "user.attribute": "telephone",
            "id.token.claim": "true",
            "access.token.claim": "true",
            "claim.name": "telephone",
            "jsonType.label": "String"
          }
        }
      ]
    }
  ]
}
